error handling (try catch & if else) untuk semua function
menit 01.09 pertemuan pertama chapter 7,, update UserBio
terakhir d tonton pertemuan 1 chapter 7, 01.13.32
updateuserbio masih belum belum update, cuma insert terus

// user.controller.js
  // updateUserBio = async (req, res) => {
  //   const dataUpdated = req.body;
  //   const id = req.params;
  //   try {
  //     const newUserBio = await userModel.createUserBio(dataUpdated, id);
  //     if (newUserBio) {
  //       console.log("new user Bio " + newUserBio);
  //       return res.json(newUserBio);
  //     }
  //     if (dataUpdated === null || dataUpdated.length === 0) {
  //       res.statusCode = 400;
  //       return res.json({ message: "Please insert data" });
  //     }
  //     const existedUserBio = await userModel.isUserBioExist(id);
  //     if (existedUserBio) {
  //       const updatedUserBio = await userModel.updateUserBio(dataUpdated, id);
  //       console.log("updated user Bio " + updatedUserBio);
  //       console.log("existed user bio " + existedUserBio);
  //       return res.json({ message: "User profile has been updated" });
  //     }
  //   } catch (error) {}
  //   res.statusCode = 500;

  //   return res.json({ message: "Something went wrong" });
  // };

  // user_model.js
  // isUserBioExist = async (id) => {
  //   const existedUserBio = await db.User.findOne({
  //     where: { id: id },
  //   });

  //   if (existedUserBio) {
  //     return true;
  //   } else {
  //     return false;
  //   }
  // };

  // createUserBio = (dataUpdated, id) => {
  //   db.UserBio.create({
  //     fullname: dataUpdated.fullname,
  //     phoneNumber: dataUpdated.phoneNumber,
  //     address: dataUpdated.address,
  //     dateOfBirth: dataUpdated.dateOfBirth,
  //     userID: id.userID,
  //   });
  // };

  // updateUserBio = (dataUpdated, id) => {
  //   db.UserBio.update({
  //     fullname: dataUpdated.fullname,
  //     phoneNumber: dataUpdated.phoneNumber,
  //     address: dataUpdated.address,
  //     dateOfBirth: dataUpdated.dateOfBirth,
  //     userID: id.userID,
  //   });
  // };
-------------------------------------------------------------------------------------------
// update user bio bikin sendiri dan berhasil
 ------dari user_controller
 // updateUserBio = async (req, res) => {
    //   const { id } = req.params;
    //   const { fullname, phoneNumber, address, dateOfBirth } = req.body;
    //   try {
    //     const singleUser = await userModel.getSingleUser(id);
    //     if (singleUser === null) {
    //       res.statusCode = 400;
    //       return res.json({ message: "User cannot be found" });
    //     }
    //     const updatedUserBio = await userModel.updateUserBio(
    //       fullname,
    //       phoneNumber,
    //       address,
    //       dateOfBirth,
    //       id
    //     );
    //     return res.json({ message: "User profile has been updated" });
    //   } catch (error) {
    //     res.statusCode = 500;
    //     return res.send("Something went wrong");
    //   }}

    ------dari user_model
      // updateUserBio = (fullname, phoneNumber, address, dateOfBirth, id) => {
  //   db.UserBio.upsert({
  //     fullname: fullname,
  //     phoneNumber: phoneNumber,
  //     address: address,
  //     dateOfBirth: dateOfBirth,
  //     userID: id,
  //   });
  // };
  -----------------------------------------------------------------------------------------------




  chapter 7 pertemuan 3 00.28 tetang validasi
  chapter 7 pertemuan 2 01.51 tetang authorization
  chapter 7 pertemuan 2 02.00 tetang membuat function authorization (middleware)
